Icd10Prefix;IcdO3HistologieRegExPattern;R;L;B;X;
C07;;x;x;;x;
C09;;x;x;;x;
C30.0;;x;x;;x;
C34.0;;x;x;;x;
C34.1;;x;x;;x;
C34.2;;x;x;;x;
C34.3;;x;x;;x;
C34.8;;x;x;;x;
C34.9;;x;x;;x;
C38.4;;x;x;;x;
C40.0;;x;x;;x;
C40.1;;x;x;;x;
C40.2;;x;x;;x;
C40.3;;x;x;;x;
C41.30;;x;x;;x;
C41.32;;x;x;;x;
C41.4;;x;x;;x;
C43.1;;x;x;;x;
C43.2;;x;x;;x;
C43.6;;x;x;;x;
C43.7;;x;x;;x;
C44.1;;x;x;;x;
C44.2;;x;x;;x;
C44.6;;x;x;;x;
C44.7;;x;x;;x;
C45.0;;x;x;;x;
C50;;x;x;;x;
C56;;x;x;x;x;
C57.0;;x;x;x;x;
C62;;x;x;;x;
C63.0;;x;x;;x;
C64;;x;x;;x;
C64;89(?:59|60)/3;x;x;x;x;
C65;;x;x;;x;
C66;;x;x;;x;
C69.0;;x;x;;x;
C69.1;;x;x;;x;
C69.2;;x;x;;x;
C69.2;951[0-4]/3;x;x;x;x;
C69.3;;x;x;;x;
C69.4;;x;x;;x;
C69.5;;x;x;;x;
C69.6;;x;x;;x;
C69.8;;x;x;;x;
C69.9;;x;x;;x;
C74;;x;x;;x;
D00.0;;x;x;;x;
D02.2;;x;x;;x;
D02.3;;x;x;;x;
D03.1;;x;x;;x;
D03.2;;x;x;;x;
D03.6;;x;x;;x;
D03.7;;x;x;;x;
D04.1;;x;x;;x;
D04.2;;x;x;;x;
D04.6;;x;x;;x;
D04.7;;x;x;;x;
D05;;x;x;;x;
D07.3;;x;x;x;x;
D07.6;;x;x;;x;
D09.1;;x;x;;x;
D09.2;;x;x;;x;
D09.3;;x;x;;x;
D09.7;;x;x;;x;
D39.1;;x;x;x;x;
